<?xml version="1.0" encoding="UTF-8"?>
<svg width="19px" height="16px" viewBox="0 0 19 16" version="1.1" xmlns="http://www.w3.org/2000/svg" xmlns:xlink="http://www.w3.org/1999/xlink">
    <!-- Generator: Sketch 48.2 (47327) - http://www.bohemiancoding.com/sketch -->
    <title>Shape Copy 4</title>
    <desc>Created with Sketch.</desc>
    <defs></defs>
    <g id="03-affinity-site-" stroke="none" stroke-width="1" fill="none" fill-rule="evenodd" transform="translate(-221.000000, -581.000000)">
        <polygon id="Shape-Copy-4" stroke="#88C642" stroke-width="3" fill="#88C642" points="228.209545 591.968068 225.052386 588.810909 224 589.863295 228.209545 594.072841 237.23 585.052386 236.177613 584"></polygon>
    </g>
</svg>