<?xml version="1.0" encoding="UTF-8"?>
<svg width="26px" height="24px" viewBox="0 0 26 24" version="1.1" xmlns="http://www.w3.org/2000/svg" xmlns:xlink="http://www.w3.org/1999/xlink">
    <!-- Generator: Sketch 48.2 (47327) - http://www.bohemiancoding.com/sketch -->
    <title>Shape</title>
    <desc>Created with Sketch.</desc>
    <defs></defs>
    <g id="06-pricing-" stroke="none" stroke-width="1" fill="none" fill-rule="evenodd" transform="translate(-682.000000, -1712.000000)">
        <g id="Group-17-Copy" transform="translate(-4.000000, 1112.000000)" fill="#184C54" fill-rule="nonzero">
            <g id="Group-5" transform="translate(182.000000, 223.000000)">
                <path d="M518.025337,398.63151 L519.581937,398.63151 L519.581937,401 L514.418063,401 L514.418063,398.63151 L515.974663,398.63151 L515.974663,377.971554 C515.974663,377.435886 516.431549,377 517,377 C517.568451,377 518.025337,377.435886 518.025337,377.971554 L518.025337,398.63151 L518.025337,398.63151 Z M528.129955,380.733917 L519.581937,380.733917 L519.581937,385.465646 L528.129955,385.465646 L530,383.097155 L528.129955,380.733917 Z M514.418063,385.465646 L514.418063,380.733917 L505.870045,380.733917 L504,383.102407 L505.870045,385.465646 L514.418063,385.465646 Z M514.418063,386.88884 L505.870045,386.88884 L504,389.252079 L505.870045,391.620569 L514.41275,391.620569 L514.41275,386.88884 L514.418063,386.88884 Z" id="Shape"></path>
            </g>
        </g>
    </g>
</svg>