<?xml version="1.0" encoding="UTF-8"?>
<svg width="32px" height="17px" viewBox="0 0 32 17" version="1.1" xmlns="http://www.w3.org/2000/svg" xmlns:xlink="http://www.w3.org/1999/xlink">
    <!-- Generator: Sketch 48.2 (47327) - http://www.bohemiancoding.com/sketch -->
    <title>Group 2</title>
    <desc>Created with Sketch.</desc>
    <defs></defs>
    <g id="06-pricing-" stroke="none" stroke-width="1" fill="none" fill-rule="evenodd" transform="translate(-208.000000, -1718.000000)">
        <g id="Group-17-Copy" transform="translate(-4.000000, 1112.000000)">
            <g id="Group-5" transform="translate(182.000000, 223.000000)">
                <g id="Group-2" transform="translate(30.000000, 383.000000)">
                    <polygon id="Shape" points="26.986896 4.67892977 19.2882883 1 19 1.41471572 27 5"></polygon>
                    <path d="M7.49996905,8 C6.66748623,8 6,8.67460317 6,9.5 C6,10.3253968 6.67498607,11 7.49996905,11 C8.33245187,11 8.9999381,10.3253968 8.9999381,9.5 C9.00743795,8.67460317 8.33245187,8 7.49996905,8 Z" id="Shape"></path>
                    <path d="M9.18211921,1.97155785 L14.8524985,1.97155785 L13.2974112,4.35681965 C16.5213727,5.33936652 19.7263697,6.60633484 22.9250452,7.8280543 C24.8783865,8.57142857 26.9455148,9.34065934 29,10 L29,7.51131222 L26.5788682,6.39948287 L26.5788682,4.25339367 L18.6201084,0 L12.0078266,0 L11.3377483,1.22818358 L8.7269717,1.22818358 L8,2.55332902 L8.44882601,2.69553975 L9.18211921,1.97155785 Z M28.1465984,7.93148028 L28.1718844,8.44214609 L15.3771824,3.55526826 L15.8386514,2.85714286 L28.1465984,7.93148028 Z M18.6011439,1.17647059 L26.0288983,4.73173885 L26.0415412,5.04201681 L18.3229982,1.57724628 L18.6011439,1.17647059 Z M12.4629741,0.749838397 L18.1396749,0.749838397 L17.2546659,2.10730446 L15.9397953,1.49967679 L16.7299819,1.49967679 L17.1472005,0.950226244 L15.9777243,0.950226244 L15.6616496,1.37039431 L15.3518964,1.22818358 L15.1559302,1.22818358 L15.3645394,0.956690368 L14.1950632,0.956690368 L13.9864539,1.22818358 L11.9888621,1.22818358 L12.4629741,0.749838397 Z" id="Shape" fill="#184C54" fill-rule="nonzero"></path>
                    <path d="M22.8286805,8.67034481 C15.3026712,5.5907684 7.76380799,2.22226148 0,3.15952387 C0.739104238,7.03542095 5.32155051,10.2911745 4.81381804,13.8569998 C4.49246837,15.6469596 2.98855192,14.2234483 2.88572002,17 L31.1002209,17 L31.1387829,15.1536636 L32,11.9683809 C28.9536051,11.1297777 25.7658164,9.87539645 22.8286805,8.67034481 Z M7.3653344,9.43143006 C6.65193814,9.43143006 6.07993573,8.83242778 6.07993573,8.09953088 C6.07993573,7.36663398 6.65836513,6.7676317 7.3653344,6.7676317 C8.07873067,6.7676317 8.65073308,7.36663398 8.65073308,8.09953088 C8.65716007,8.83242778 8.07873067,9.43143006 7.3653344,9.43143006 Z" id="Shape" fill="#184C54" fill-rule="nonzero"></path>
                    <polygon id="Shape" fill="#184C54" fill-rule="nonzero" points="11.8888889 2 11.1979458 2 11 2.88888889 11.690943 2.88888889"></polygon>
                    <polygon id="Shape" fill="#184C54" fill-rule="nonzero" points="16 2 13.78 2 13 2.88888889 15.22 2.88888889"></polygon>
                    <polygon id="Shape" fill="#184C54" fill-rule="nonzero" points="11.7888446 2 11 2.88888889 13.2111554 2.88888889 14 2"></polygon>
                </g>
            </g>
        </g>
    </g>
</svg>