<?xml version="1.0" encoding="UTF-8"?>
<svg width="32px" height="32px" viewBox="0 0 32 32" version="1.1" xmlns="http://www.w3.org/2000/svg" xmlns:xlink="http://www.w3.org/1999/xlink">
    <!-- Generator: Sketch 48.2 (47327) - http://www.bohemiancoding.com/sketch -->
    <title>icon-pay-small-6fad7dbffec2d83747c573b80b20bafc66bed4b1346631f72f2c754097af4fe1</title>
    <desc>Created with Sketch.</desc>
    <defs></defs>
    <g id="01-homepage" stroke="none" stroke-width="1" fill="none" fill-rule="evenodd" transform="translate(-651.000000, -1102.000000)">
        <g id="Group-52" transform="translate(320.000000, 913.000000)" stroke="#184C54" stroke-width="2">
            <g id="Group-43" transform="translate(332.000000, 190.000000)">
                <g id="icon-pay-small-6fad7dbffec2d83747c573b80b20bafc66bed4b1346631f72f2c754097af4fe1">
                    <g id="Group-12" transform="translate(15.000000, 15.500000) scale(-1, 1) translate(-15.000000, -15.500000) ">
                        <path d="M29.7742818,30.1111354 L25.1573187,23.6473871 L25.1573187,15.2278933 C25.1573187,12.1012859 22.2375513,10.5389056 18.6935705,7.51756498" id="Stroke-580"></path>
                        <path d="M21.4637483,19.0304241 L16.3850889,13.9517647 C15.6205198,13.1871956 14.3794802,13.1871956 13.6149111,13.9517647 C12.850342,14.7163338 12.850342,15.9573735 13.6149111,16.7219425 L17.7701778,22.7239945 L17.7701778,25.566197 C17.7701778,26.7204378 18.130301,27.8469767 18.800684,28.7869904 L19.772093,30.1443776" id="Stroke-581"></path>
                        <path d="M13.1532148,26.417565 L2.99589603,26.417565 C1.47414501,26.417565 0.225718194,25.1728317 0.225718194,23.6473871 L0.225718194,3.33274966 C0.225718194,1.81099863 1.47414501,0.562571819 2.99589603,0.562571819 L15.9233926,0.562571819 C17.4469904,0.562571819 18.6935705,1.81099863 18.6935705,3.33274966 L18.6935705,12.5629822" id="Stroke-582"></path>
                    </g>
                </g>
            </g>
        </g>
    </g>
</svg>